<?xml version="1.0" encoding="utf-8"?>
<!-- Generator: Adobe Illustrator 24.1.1, SVG Export Plug-In . SVG Version: 6.00 Build 0)  -->
<svg version="1.1" id="Capa_1" xmlns="http://www.w3.org/2000/svg" xmlns:xlink="http://www.w3.org/1999/xlink" x="0px" y="0px"
	 width="402.0798px" height="173.2881px" viewBox="0 0 402.0798 173.2881" style="enable-background:new 0 0 402.0798 173.2881;"
	 xml:space="preserve">
<style type="text/css">
	.st0{fill:#FFFFFF;}
	.st1{fill:none;stroke:#FFFFFF;stroke-width:2;stroke-linecap:round;stroke-linejoin:round;stroke-miterlimit:10;}
	.st2{fill:#EDEDED;}
	.st3{fill:#183D7B;}
	.st4{fill:#FF6F20;}
	.st5{fill:#FFFFFF;stroke:#FF6F20;stroke-miterlimit:10;}
</style>
<g>
	<path class="st5" d="M90.6704,33.576c0.8555,2.3037,1.7581,4.084,2.1771,5.9718c2.2227,10.0054,5.4404,19.954,6.2027,30.0811
		c1.1122,14.7748-7.6691,22.0139-22.1259,19.6412c-4.725-0.7755-9.2953-2.4861-13.9416-3.7506
		c-1.7581-0.4785-3.5394-1.2747-5.2927-1.231c-1.2584,0.0315-2.4879,1.2173-3.7305,1.8882c0.1487,0.43,0.2974,0.8598,0.446,1.2897
		c6.5884-0.0063,11.1646,3.2107,12.9233,9.1733c2.1868,7.4137-4.2905,9.9233-8.9492,13.2188
		c0.5349,2.3229,1.2725,4.3946,1.4475,6.5128c0.0994,1.2012,0.3438,2.2422,0.7142,3.1582l-0.005-0.0003
		c0.5349,2.3229,1.3358,3.7881,1.5109,5.9063c0.4163,5.0349,3.3097,7.3265,7.8898,8.8726
		c8.0313,2.7111,15.8558,6.0328,23.7765,9.0739c10.9475,4.2033,21.904,8.3834,33.4286,12.7922
		c-1.3514-8.3145-2.5844-15.9001-3.8684-23.7991l-1.8718-9.0764l-0.0023-0.0001c1.7668-0.0641,2.8533-0.1318,3.9304-0.1277
		c52.7686,0.1951,194.2002,1.1474,246.968,1.4749c3.6699,0.0228,5.1519-0.9227,6.0241-4.616
		c4.8595-20.5751,10.0604-41.0691,15.0828-61.606c1.8809-7.6906,3.5956-15.4217,5.5925-24.0231
		C325.4462,34.389,163.9887,33.5877,90.6704,33.576z"/>
	<path class="st2" d="M61.1094,117.7728l59.6735,4.1425l5.8987,33.4585l-60.26-23.4975c-1.0471-0.4083-1.833-1.3227-2.1018-2.4455
		l-1.3091-3.4261L61.1094,117.7728L61.1094,117.7728z"/>
	<g>
		<path class="st3" d="M118.3214,50.1742h3.9085l9.3292,21.4474h-5.3308l-1.8483-4.5439h-8.3305l-1.7868,4.5439h-5.2101
			L118.3214,50.1742z M120.139,56.4149l-2.6045,6.6644h5.2397L120.139,56.4149z"/>
		<path class="st3" d="M141.4657,61.231c-0.6674-0.8271-1.5454-1.2413-2.6364-1.2413c-0.3834,0-0.7573,0.0899-1.1206,0.2722
			s-0.5455,0.4946-0.5455,0.9395c0,0.3633,0.187,0.6307,0.5609,0.8023c0.3739,0.1716,0.8484,0.323,1.4235,0.4544
			c0.5763,0.1313,1.1916,0.2722,1.8483,0.4236c0.6556,0.1515,1.2721,0.3893,1.8472,0.7123c0.5763,0.323,1.0508,0.7621,1.4247,1.3182
			c0.3727,0.555,0.5597,1.2969,0.5597,2.2258c0,0.9502-0.2071,1.7324-0.6212,2.3477c-0.4142,0.6165-0.9443,1.1111-1.5904,1.485
			s-1.3726,0.6354-2.1808,0.7869c-0.8082,0.1515-1.6057,0.2272-2.3926,0.2272c-1.0307,0-2.0708-0.1467-3.1204-0.439
			c-1.0508-0.2923-1.9382-0.8129-2.666-1.5596l2.7571-3.06c0.4236,0.5254,0.8934,0.9242,1.4081,1.1963
			c0.5147,0.2733,1.1158,0.4094,1.8022,0.4094c0.5254,0,0.9999-0.0757,1.4247-0.2272c0.4236-0.1515,0.6354-0.4295,0.6354-0.833
			c0-0.3834-0.187-0.6709-0.5597-0.8638c-0.3739-0.1917-0.8484-0.3526-1.4247-0.484c-0.5751-0.1313-1.1916-0.2733-1.8471-0.4248
			c-0.6567-0.1515-1.272-0.3787-1.8483-0.6816c-0.5751-0.3029-1.0496-0.7313-1.4235-1.2874
			c-0.3739-0.555-0.5609-1.2969-0.5609-2.2258c0-0.8685,0.1775-1.6164,0.5301-2.2424c0.3538-0.626,0.8188-1.1407,1.3939-1.5442
			c0.5751-0.4047,1.2366-0.7017,1.9844-0.8946c0.7467-0.1917,1.504-0.2875,2.2719-0.2875c0.9691,0,1.9489,0.142,2.9382,0.4248
			s1.827,0.7869,2.5145,1.5146L141.4657,61.231z"/>
		<path class="st3" d="M146.8568,52.2651c0-0.7277,0.258-1.349,0.7727-1.8637c0.5147-0.5147,1.136-0.7727,1.8625-0.7727
			c0.7277,0,1.3478,0.258,1.8637,0.7727c0.5147,0.5147,0.7715,1.136,0.7715,1.8637c0,0.7266-0.2568,1.3478-0.7715,1.8625
			c-0.5159,0.5147-1.136,0.7727-1.8637,0.7727c-0.7265,0-1.3478-0.258-1.8625-0.7727
			C147.1148,53.6129,146.8568,52.9916,146.8568,52.2651z M147.2201,56.8989h4.5439v14.7227h-4.5439V56.8989z"/>
		<path class="st3" d="M163.3663,61.231c-0.6662-0.8271-1.5454-1.2413-2.6352-1.2413c-0.3846,0-0.7573,0.0899-1.1206,0.2722
			c-0.3645,0.1822-0.5455,0.4946-0.5455,0.9395c0,0.3633,0.1858,0.6307,0.5597,0.8023c0.3739,0.1716,0.8484,0.323,1.4247,0.4544
			c0.5751,0.1313,1.1904,0.2722,1.8471,0.4236c0.6567,0.1515,1.272,0.3893,1.8483,0.7123c0.5751,0.323,1.0496,0.7621,1.4235,1.3182
			c0.3739,0.555,0.5609,1.2969,0.5609,2.2258c0,0.9502-0.2083,1.7324-0.6212,2.3477c-0.4142,0.6165-0.9443,1.1111-1.5904,1.485
			c-0.6473,0.3739-1.3738,0.6354-2.1808,0.7869c-0.8082,0.1515-1.6057,0.2272-2.3938,0.2272c-1.0295,0-2.0696-0.1467-3.1204-0.439
			c-1.0496-0.2923-1.9382-0.8129-2.6648-1.5596l2.7559-3.06c0.4248,0.5254,0.8934,0.9242,1.4093,1.1963
			c0.5147,0.2733,1.1147,0.4094,1.8022,0.4094c0.5242,0,0.9999-0.0757,1.4235-0.2272c0.4236-0.1515,0.6366-0.4295,0.6366-0.833
			c0-0.3834-0.187-0.6709-0.5609-0.8638c-0.3739-0.1917-0.8484-0.3526-1.4235-0.484c-0.5763-0.1313-1.1916-0.2733-1.8483-0.4248
			c-0.6567-0.1515-1.272-0.3787-1.8471-0.6816c-0.5763-0.3029-1.0508-0.7313-1.4247-1.2874
			c-0.3739-0.555-0.5597-1.2969-0.5597-2.2258c0-0.8685,0.1763-1.6164,0.5301-2.2424c0.3526-0.626,0.8177-1.1407,1.3928-1.5442
			c0.5763-0.4047,1.2377-0.7017,1.9844-0.8946c0.7467-0.1917,1.504-0.2875,2.272-0.2875c0.9691,0,1.9489,0.142,2.9381,0.4248
			s1.8282,0.7869,2.5145,1.5146L163.3663,61.231z"/>
		<path class="st3" d="M179.0877,60.534h-3.9984v4.9084c0,0.4035,0.0201,0.7715,0.0603,1.1052
			c0.0402,0.3337,0.1313,0.6212,0.2733,0.8638c0.1408,0.2414,0.3574,0.4284,0.6508,0.5597
			c0.2923,0.1313,0.6816,0.1976,1.1667,0.1976c0.2414,0,0.5597-0.026,0.9537-0.0757c0.394-0.0509,0.6911-0.1668,0.8934-0.3491
			v3.7866c-0.5053,0.1822-1.0295,0.3029-1.575,0.3633c-0.5455,0.0615-1.0804,0.0911-1.6057,0.0911
			c-0.768,0-1.4744-0.0805-2.1205-0.2426c-0.6461-0.1609-1.2117-0.4189-1.6957-0.7715c-0.4852-0.3538-0.8638-0.8129-1.136-1.3785
			c-0.2733-0.5656-0.4094-1.2519-0.4094-2.0601V60.534h-2.9086v-3.6351h2.9086v-4.3617h4.5439v4.3617h3.9984V60.534z"/>
		<path class="st3" d="M195.325,69.0775c-0.7277,0.9289-1.6472,1.646-2.7571,2.1501c-1.1111,0.5053-2.2625,0.7573-3.4529,0.7573
			c-1.1312,0-2.1962-0.181-3.1961-0.5455c-0.9999-0.3633-1.8684-0.8827-2.6056-1.5596s-1.317-1.4886-1.7418-2.4388
			c-0.4236-0.949-0.6354-2.0092-0.6354-3.1807c0-1.1703,0.2118-2.2305,0.6354-3.1807c0.4248-0.949,1.0046-1.7619,1.7418-2.4388
			c0.7372-0.6757,1.6057-1.1963,2.6056-1.5596s2.0649-0.5455,3.1961-0.5455c1.0496,0,2.0033,0.1822,2.8624,0.5455
			c0.8579,0.3633,1.5844,0.8839,2.1808,1.5596c0.5952,0.6768,1.0555,1.4898,1.3786,2.4388c0.323,0.9502,0.484,2.0104,0.484,3.1807
			v1.4235h-10.5409c0.181,0.8685,0.5751,1.5608,1.1809,2.0755s1.3525,0.7727,2.2412,0.7727c0.7478,0,1.3786-0.1668,1.8933-0.5005
			c0.5159-0.3325,0.9644-0.762,1.349-1.2874L195.325,69.0775z M191.4769,62.5941c0.0201-0.7668-0.2319-1.4235-0.7573-1.969
			c-0.5254-0.5455-1.201-0.8177-2.0294-0.8177c-0.5053,0-0.949,0.0805-1.3324,0.2426c-0.3846,0.1621-0.7123,0.368-0.9845,0.6212
			c-0.2733,0.252-0.4852,0.5443-0.6366,0.878c-0.1515,0.3337-0.2378,0.6816-0.2568,1.0449H191.4769z"/>
		<path class="st3" d="M198.7779,56.8989h4.3617v1.9998h0.0603c0.1408-0.2828,0.3432-0.5656,0.6059-0.8484
			s0.5763-0.5349,0.9395-0.7573c0.3633-0.2213,0.7774-0.4035,1.2413-0.5455c0.465-0.1408,0.9703-0.2118,1.5146-0.2118
			c1.1514,0,2.0803,0.1775,2.7879,0.5301c0.7064,0.3538,1.2567,0.8437,1.6507,1.4697c0.394,0.626,0.6615,1.3632,0.8023,2.2116
			c0.1408,0.8472,0.2118,1.7667,0.2118,2.7559v8.1187H208.41v-7.2099c0-0.4236-0.0142-0.8626-0.045-1.317
			c-0.0308-0.4544-0.1207-0.8733-0.2722-1.2579c-0.1515-0.3834-0.3846-0.697-0.697-0.9384
			c-0.3136-0.2426-0.7632-0.3645-1.3478-0.3645c-0.5869,0-1.0602,0.1065-1.4247,0.3183c-0.3633,0.2118-0.6414,0.4958-0.833,0.8484
			c-0.1917,0.3538-0.3171,0.7526-0.3787,1.1963c-0.0603,0.4449-0.0899,0.9088-0.0899,1.3939v7.3306h-4.5439V56.8989z"/>
		<path class="st3" d="M226.1312,61.6558c-0.2225-0.323-0.5349-0.5917-0.9395-0.8035c-0.4035-0.2118-0.8378-0.3183-1.3016-0.3183
			c-1.1514,0-2.0448,0.3443-2.6814,1.0307s-0.9538,1.5856-0.9538,2.6956c0,1.1111,0.3171,2.0104,0.9538,2.6967
			s1.53,1.0295,2.6814,1.0295c0.5041,0,0.9384-0.1112,1.3016-0.3337c0.3645-0.2213,0.6768-0.484,0.9395-0.7869l2.9985,3.15
			c-0.7064,0.7277-1.5395,1.2377-2.4991,1.53c-0.9585,0.2923-1.8732,0.439-2.7405,0.439c-1.1312,0-2.1962-0.181-3.1961-0.5455
			c-0.9999-0.3633-1.8684-0.8827-2.6056-1.5596s-1.317-1.4886-1.7418-2.4388c-0.4236-0.949-0.6354-2.0092-0.6354-3.1807
			c0-1.1703,0.2118-2.2305,0.6354-3.1807c0.4248-0.949,1.0046-1.7619,1.7418-2.4388c0.7372-0.6757,1.6057-1.1963,2.6056-1.5596
			s2.0649-0.5455,3.1961-0.5455c0.8674,0,1.7821,0.1467,2.7405,0.439c0.9597,0.2935,1.7927,0.8035,2.4991,1.53L226.1312,61.6558z"/>
		<path class="st3" d="M230.4632,52.2651c0-0.7277,0.2568-1.349,0.7715-1.8637c0.5159-0.5147,1.136-0.7727,1.8637-0.7727
			c0.7265,0,1.3478,0.258,1.8625,0.7727c0.5147,0.5147,0.7727,1.136,0.7727,1.8637c0,0.7266-0.258,1.3478-0.7727,1.8625
			c-0.5147,0.5147-1.136,0.7727-1.8625,0.7727c-0.7277,0-1.3478-0.258-1.8637-0.7727
			C230.72,53.6129,230.4632,52.9916,230.4632,52.2651z M230.8265,56.8989h4.5439v14.7227h-4.5439V56.8989z"/>
		<path class="st3" d="M247.8815,69.7733H247.82c-0.5041,0.7881-1.1762,1.3537-2.014,1.6969
			c-0.8378,0.3432-1.7217,0.5147-2.6506,0.5147c-0.6863,0-1.3478-0.0958-1.9844-0.2875c-0.6354-0.1917-1.1963-0.4792-1.6815-0.8638
			c-0.484-0.3834-0.8685-0.8579-1.1502-1.4235c-0.284-0.5644-0.4248-1.2212-0.4248-1.969c0-0.8484,0.1562-1.5643,0.4698-2.1501
			c0.3124-0.5857,0.7372-1.0709,1.272-1.4543c0.5349-0.3834,1.1466-0.6816,1.8329-0.8934c0.6863-0.213,1.3987-0.3692,2.1359-0.4698
			c0.7372-0.1006,1.4732-0.1621,2.2116-0.1822c0.736-0.0201,1.4176-0.0296,2.0448-0.0296c0-0.8082-0.2887-1.4496-0.8638-1.9241
			c-0.5751-0.4745-1.2567-0.7123-2.0448-0.7123c-0.7478,0-1.4294,0.1574-2.0448,0.4698c-0.6165,0.3136-1.1667,0.7419-1.6507,1.2874
			l-2.4234-2.4838c0.8484-0.7881,1.8377-1.3786,2.9689-1.7726c1.1301-0.3929,2.3015-0.5905,3.5132-0.5905
			c1.3336,0,2.4281,0.1668,3.2872,0.5005c0.8579,0.3325,1.5442,0.8224,2.0601,1.4685c0.5147,0.6473,0.8733,1.4389,1.0744,2.3784
			c0.2023,0.9384,0.3029,2.0246,0.3029,3.2565v7.482h-4.1794V69.7733z M246.7597,65.169c-0.3432,0-0.7715,0.0154-1.2874,0.0462
			c-0.5147,0.0296-1.0094,0.116-1.4839,0.2568c-0.4745,0.142-0.878,0.3538-1.2117,0.6366
			c-0.3337,0.2828-0.4994,0.6768-0.4994,1.1809c0,0.5455,0.2319,0.9502,0.6958,1.2117c0.465,0.2627,0.949,0.394,1.4543,0.394
			c0.4437,0,0.8733-0.0603,1.2874-0.1822c0.4142-0.1207,0.7822-0.2923,1.1064-0.5147c0.3219-0.2213,0.5798-0.5041,0.7715-0.8484
			c0.1917-0.3432,0.2887-0.7467,0.2887-1.2117V65.169H246.7597z"/>
		<path class="st3" d="M264.4501,50.1742h7.1495l4.9379,13.9949h0.0604l4.9675-13.9949h7.1188v21.4474h-4.7249V55.1725h-0.0604
			l-5.6349,16.4491h-3.6043l-5.4231-16.4491h-0.0603v16.4491h-4.7261V50.1742z"/>
		<path class="st3" d="M306.4054,69.0775c-0.7265,0.9289-1.646,1.646-2.7571,2.1501c-1.11,0.5053-2.2613,0.7573-3.4529,0.7573
			c-1.1312,0-2.1962-0.181-3.1961-0.5455c-0.9999-0.3633-1.8684-0.8827-2.6044-1.5596c-0.7384-0.6768-1.3182-1.4886-1.7419-2.4388
			c-0.4248-0.949-0.6366-2.0092-0.6366-3.1807c0-1.1703,0.2118-2.2305,0.6366-3.1807c0.4236-0.949,1.0034-1.7619,1.7419-2.4388
			c0.736-0.6757,1.6046-1.1963,2.6044-1.5596c0.9999-0.3633,2.0649-0.5455,3.1961-0.5455c1.0496,0,2.0045,0.1822,2.8624,0.5455
			s1.5856,0.8839,2.1808,1.5596c0.5964,0.6768,1.0555,1.4898,1.3785,2.4388c0.323,0.9502,0.4851,2.0104,0.4851,3.1807v1.4235
			h-10.5421c0.1822,0.8685,0.5751,1.5608,1.1809,2.0755s1.3537,0.7727,2.2424,0.7727c0.7467,0,1.3785-0.1668,1.8933-0.5005
			c0.5147-0.3325,0.9644-0.762,1.3478-1.2874L306.4054,69.0775z M299.5896,50.1742h6.1792l-5.2397,4.3628h-3.9996L299.5896,50.1742z
			 M302.5585,62.5941c0.0201-0.7668-0.2331-1.4235-0.7573-1.969c-0.5254-0.5455-1.2022-0.8177-2.0294-0.8177
			c-0.5053,0-0.9502,0.0805-1.3336,0.2426s-0.7112,0.368-0.9845,0.6212c-0.2722,0.252-0.484,0.5443-0.6354,0.878
			c-0.1515,0.3337-0.2379,0.6816-0.258,1.0449H302.5585z"/>
		<path class="st3" d="M325.3075,71.6216h-4.1806v-1.9382h-0.0603c-0.1823,0.2627-0.4189,0.5301-0.7124,0.8023
			c-0.2923,0.2722-0.6354,0.5207-1.0294,0.7419c-0.394,0.2225-0.8283,0.4035-1.3028,0.5455
			c-0.4745,0.1408-0.9644,0.2118-1.4685,0.2118c-1.091,0-2.0803-0.187-2.9689-0.5597c-0.8886-0.3739-1.6507-0.8993-2.2873-1.5762
			c-0.6366-0.6757-1.1265-1.4791-1.4697-2.408c-0.3431-0.9289-0.5147-1.9489-0.5147-3.0588c0-1.0307,0.1562-2.0152,0.4698-2.9535
			c0.3124-0.9395,0.7573-1.7726,1.3324-2.4991c0.5763-0.7277,1.278-1.3076,2.1063-1.7418c0.8271-0.4343,1.7667-0.652,2.8163-0.652
			c0.949,0,1.8329,0.1467,2.6506,0.439c0.8188,0.2935,1.4898,0.7928,2.0152,1.5004h0.0603v-9.7552h4.5439V71.6216z
			 M321.1269,64.2602c0-1.1099-0.3183-2.0093-0.9537-2.6956c-0.6366-0.6863-1.53-1.0307-2.6814-1.0307s-2.0448,0.3443-2.6802,1.0307
			c-0.6366,0.6863-0.955,1.5856-0.955,2.6956c0,1.1111,0.3183,2.0104,0.955,2.6967c0.6354,0.6863,1.5288,1.0295,2.6802,1.0295
			s2.0447-0.3432,2.6814-1.0295C320.8086,66.2707,321.1269,65.3714,321.1269,64.2602z"/>
		<path class="st3" d="M328.6397,52.2651c0-0.7277,0.2568-1.349,0.7715-1.8637c0.5159-0.5147,1.136-0.7727,1.8637-0.7727
			c0.7265,0,1.3478,0.258,1.8625,0.7727c0.5147,0.5147,0.7727,1.136,0.7727,1.8637c0,0.7266-0.258,1.3478-0.7727,1.8625
			s-1.136,0.7727-1.8625,0.7727c-0.7278,0-1.3478-0.258-1.8637-0.7727C328.8965,53.6129,328.6397,52.9916,328.6397,52.2651z
			 M329.003,56.8989h4.5439v14.7227h-4.5439V56.8989z"/>
		<path class="st3" d="M346.7845,61.6558c-0.2225-0.323-0.5349-0.5917-0.9395-0.8035c-0.4035-0.2118-0.8378-0.3183-1.3016-0.3183
			c-1.1514,0-2.0448,0.3443-2.6814,1.0307c-0.6366,0.6863-0.9538,1.5856-0.9538,2.6956c0,1.1111,0.3171,2.0104,0.9538,2.6967
			c0.6366,0.6863,1.53,1.0295,2.6814,1.0295c0.5041,0,0.9384-0.1112,1.3016-0.3337c0.3644-0.2213,0.6768-0.484,0.9395-0.7869
			l2.9985,3.15c-0.7064,0.7277-1.5395,1.2377-2.4991,1.53c-0.9585,0.2923-1.8732,0.439-2.7405,0.439
			c-1.1313,0-2.1962-0.181-3.1961-0.5455c-0.9999-0.3633-1.8684-0.8827-2.6057-1.5596c-0.7372-0.6768-1.317-1.4886-1.7418-2.4388
			c-0.4236-0.949-0.6354-2.0092-0.6354-3.1807c0-1.1703,0.2118-2.2305,0.6354-3.1807c0.4248-0.949,1.0046-1.7619,1.7418-2.4388
			c0.7372-0.6757,1.6057-1.1963,2.6057-1.5596c0.9999-0.3633,2.0648-0.5455,3.1961-0.5455c0.8673,0,1.782,0.1467,2.7405,0.439
			c0.9597,0.2935,1.7927,0.8035,2.4991,1.53L346.7845,61.6558z"/>
		<path class="st3" d="M360.6588,69.7733h-0.0615c-0.5041,0.7881-1.1762,1.3537-2.014,1.6969
			c-0.8378,0.3432-1.7217,0.5147-2.6506,0.5147c-0.6863,0-1.3478-0.0958-1.9844-0.2875c-0.6354-0.1917-1.1963-0.4792-1.6815-0.8638
			c-0.484-0.3834-0.8685-0.8579-1.1502-1.4235c-0.284-0.5644-0.4248-1.2212-0.4248-1.969c0-0.8484,0.1562-1.5643,0.4698-2.1501
			c0.3124-0.5857,0.7372-1.0709,1.272-1.4543c0.5349-0.3834,1.1466-0.6816,1.8329-0.8934c0.6863-0.213,1.3987-0.3692,2.1359-0.4698
			c0.7372-0.1006,1.4732-0.1621,2.2116-0.1822c0.736-0.0201,1.4176-0.0296,2.0447-0.0296c0-0.8082-0.2887-1.4496-0.8638-1.9241
			c-0.5751-0.4745-1.2567-0.7123-2.0448-0.7123c-0.7478,0-1.4294,0.1574-2.0447,0.4698c-0.6165,0.3136-1.1667,0.7419-1.6507,1.2874
			l-2.4234-2.4838c0.8484-0.7881,1.8377-1.3786,2.9689-1.7726c1.1301-0.3929,2.3015-0.5905,3.5132-0.5905
			c1.3336,0,2.4281,0.1668,3.2872,0.5005c0.8579,0.3325,1.5442,0.8224,2.0601,1.4685c0.5147,0.6473,0.8733,1.4389,1.0745,2.3784
			c0.2023,0.9384,0.3029,2.0246,0.3029,3.2565v7.482h-4.1794V69.7733z M359.537,65.169c-0.3432,0-0.7715,0.0154-1.2874,0.0462
			c-0.5147,0.0296-1.0094,0.116-1.4839,0.2568c-0.4745,0.142-0.878,0.3538-1.2117,0.6366
			c-0.3337,0.2828-0.4994,0.6768-0.4994,1.1809c0,0.5455,0.2319,0.9502,0.6958,1.2117c0.4651,0.2627,0.949,0.394,1.4543,0.394
			c0.4438,0,0.8733-0.0603,1.2874-0.1822c0.4142-0.1207,0.7822-0.2923,1.1064-0.5147c0.3219-0.2213,0.5798-0.5041,0.7715-0.8484
			c0.1917-0.3432,0.2887-0.7467,0.2887-1.2117V65.169H359.537z"/>
		<path class="st3" d="M116.3228,89.2516h-6.907v-2.7263h16.7213v2.7263h-6.907v18.7211h-2.9074V89.2516z"/>
		<path class="st3" d="M127.227,101.7935c0,0.626,0.1373,1.1963,0.4094,1.7111c0.2722,0.5147,0.6307,0.9537,1.0756,1.3182
			c0.4437,0.3633,0.9585,0.6461,1.5442,0.8472c0.5857,0.2023,1.1916,0.3029,1.8176,0.3029c0.8484,0,1.5856-0.1964,2.2116-0.5905
			c0.626-0.394,1.201-0.9135,1.7264-1.5596l2.0601,1.575c-1.5146,1.9596-3.6351,2.9381-6.3615,2.9381
			c-1.1312,0-2.156-0.1917-3.0742-0.5751c-0.9194-0.3834-1.6969-0.9135-2.3323-1.5904c-0.6366-0.6768-1.1265-1.4744-1.4697-2.3938
			c-0.3432-0.9182-0.5147-1.9122-0.5147-2.9831c0-1.0709,0.1858-2.0649,0.5597-2.9843c0.3739-0.9182,0.8887-1.7158,1.5454-2.3926
			c0.6555-0.6768,1.4389-1.207,2.3477-1.5904c0.9088-0.3834,1.898-0.5763,2.9689-0.5763c1.272,0,2.3477,0.2225,3.2257,0.6674
			c0.8792,0.4437,1.601,1.0247,2.1666,1.7418c0.5644,0.7171,0.9739,1.5241,1.2259,2.4234c0.2532,0.8981,0.3787,1.8128,0.3787,2.7405
			v0.9703H127.227z M135.8308,99.6115c-0.0201-0.6059-0.1172-1.1608-0.2876-1.6661c-0.1728-0.5041-0.4295-0.9431-0.7727-1.317
			c-0.3443-0.3739-0.7727-0.6662-1.2874-0.8792c-0.5147-0.2118-1.1159-0.3171-1.8022-0.3171c-0.6674,0-1.278,0.1254-1.8329,0.3787
			c-0.5562,0.252-1.0259,0.5798-1.4093,0.9845c-0.3834,0.4035-0.6816,0.8532-0.8934,1.3478s-0.3183,0.9845-0.3183,1.4685H135.8308z"
			/>
		<path class="st3" d="M142.2218,85.071h2.7263v22.9017h-2.7263V85.071z"/>
		<path class="st3" d="M151.3404,101.7935c0,0.626,0.1361,1.1963,0.4082,1.7111c0.2733,0.5147,0.6319,0.9537,1.0756,1.3182
			c0.4437,0.3633,0.9597,0.6461,1.5454,0.8472c0.5857,0.2023,1.1916,0.3029,1.8176,0.3029c0.8484,0,1.5844-0.1964,2.2116-0.5905
			c0.6248-0.394,1.201-0.9135,1.7264-1.5596l2.0601,1.575c-1.5146,1.9596-3.6351,2.9381-6.3615,2.9381
			c-1.1312,0-2.156-0.1917-3.0754-0.5751c-0.9194-0.3834-1.6957-0.9135-2.3323-1.5904c-0.6366-0.6768-1.1265-1.4744-1.4697-2.3938
			c-0.3432-0.9182-0.5147-1.9122-0.5147-2.9831c0-1.0709,0.187-2.0649,0.5609-2.9843c0.3727-0.9182,0.8887-1.7158,1.5442-2.3926
			c0.6567-0.6768,1.4389-1.207,2.3477-1.5904c0.9088-0.3834,1.898-0.5763,2.9689-0.5763c1.272,0,2.3477,0.2225,3.2269,0.6674
			c0.878,0.4437,1.5998,1.0247,2.1655,1.7418c0.5656,0.7171,0.9739,1.5241,1.2271,2.4234c0.252,0.8981,0.3787,1.8128,0.3787,2.7405
			v0.9703H151.3404z M159.943,99.6115c-0.0201-0.6059-0.116-1.1608-0.2875-1.6661c-0.1716-0.5041-0.4295-0.9431-0.7727-1.317
			c-0.3432-0.3739-0.7727-0.6662-1.2874-0.8792c-0.5147-0.2118-1.1159-0.3171-1.8022-0.3171c-0.6662,0-1.278,0.1254-1.8329,0.3787
			c-0.555,0.252-1.0247,0.5798-1.4081,0.9845c-0.3846,0.4035-0.6816,0.8532-0.8934,1.3478
			c-0.213,0.4946-0.3183,0.9845-0.3183,1.4685H159.943z"/>
		<path class="st3" d="M167.1836,95.9764h-3.0908v-2.3619h3.0908V90.403c0-1.9181,0.368-3.3476,1.1052-4.2859
			c0.7372-0.9395,2.0045-1.4093,3.802-1.4093c0.3029,0,0.6212,0.0107,0.9538,0.0308c0.3337,0.0201,0.6922,0.0805,1.0756,0.181
			l-0.3029,2.4234c-0.2627-0.1006-0.5147-0.1704-0.7573-0.2118c-0.2426-0.0402-0.5053-0.0603-0.7881-0.0603
			c-0.5041,0-0.9088,0.0757-1.2117,0.2272c-0.3029,0.1515-0.5396,0.3692-0.7112,0.6508c-0.1716,0.284-0.2828,0.6212-0.3337,1.0153
			s-0.0757,0.8437-0.0757,1.3478v3.3026h3.2411v2.3619H169.91v11.9963h-2.7263V95.9764z"/>
		<path class="st3" d="M175.5129,100.7936c0-1.0496,0.1976-2.0294,0.5905-2.9381c0.394-0.9088,0.9348-1.7063,1.6211-2.3938
			c0.6863-0.6863,1.4945-1.2271,2.4234-1.6199c0.9289-0.394,1.9288-0.5917,2.9985-0.5917c1.0709,0,2.0708,0.1976,2.9997,0.5917
			c0.9289,0.3929,1.7359,0.9336,2.4234,1.6199c0.6863,0.6875,1.2271,1.485,1.6199,2.3938c0.394,0.9088,0.5917,1.8885,0.5917,2.9381
			s-0.1976,2.0341-0.5917,2.9535c-0.3929,0.9194-0.9336,1.717-1.6199,2.3926c-0.6875,0.6768-1.4945,1.2117-2.4234,1.6057
			s-1.9288,0.5905-2.9997,0.5905c-1.0697,0-2.0696-0.1964-2.9985-0.5905s-1.7371-0.9289-2.4234-1.6057
			c-0.6863-0.6757-1.2271-1.4732-1.6211-2.3926C175.7105,102.8277,175.5129,101.8432,175.5129,100.7936z M178.4215,100.7936
			c0,0.7266,0.11,1.3987,0.3325,2.014c0.2225,0.6165,0.5349,1.1419,0.9395,1.575c0.4035,0.4355,0.8981,0.7786,1.4839,1.0307
			c0.5857,0.252,1.2425,0.3787,1.969,0.3787c0.7277,0,1.3833-0.1266,1.969-0.3787c0.5857-0.252,1.0804-0.5952,1.485-1.0307
			c0.4035-0.4331,0.7159-0.9585,0.9384-1.575c0.2225-0.6153,0.3337-1.2874,0.3337-2.014c0-0.7277-0.1112-1.3987-0.3337-2.0152
			c-0.2225-0.6153-0.5349-1.1407-0.9384-1.575c-0.4047-0.4343-0.8993-0.7774-1.485-1.0295s-1.2413-0.3787-1.969-0.3787
			c-0.7265,0-1.3833,0.1266-1.969,0.3787c-0.5857,0.252-1.0804,0.5952-1.4839,1.0295c-0.4047,0.4343-0.7171,0.9597-0.9395,1.575
			C178.5315,99.3949,178.4215,100.0659,178.4215,100.7936z M184.3286,86.5253h3.8777l-4.5143,4.3628h-2.5145L184.3286,86.5253z"/>
		<path class="st3" d="M194.2032,93.6145h2.7263v2.2104h0.0603c0.3432-0.7668,0.9395-1.388,1.788-1.8625
			c0.8472-0.4745,1.827-0.7123,2.9381-0.7123c0.6863,0,1.3478,0.1065,1.9844,0.3183c0.6354,0.2118,1.1904,0.5408,1.6661,0.9845
			c0.4733,0.4449,0.852,1.0153,1.136,1.7122c0.2816,0.6958,0.4236,1.5194,0.4236,2.4684v9.2393h-2.7263v-8.4819
			c0-0.6662-0.0911-1.2365-0.2722-1.7111c-0.1822-0.4745-0.4248-0.8591-0.7277-1.1514c-0.3029-0.2923-0.6508-0.5053-1.0449-0.6366
			s-0.8023-0.1964-1.2271-0.1964c-0.5656,0-1.0898,0.0911-1.575,0.2722c-0.4852,0.1822-0.9088,0.4698-1.272,0.8638
			c-0.3633,0.394-0.6473,0.8934-0.8484,1.4992c-0.2023,0.6059-0.3029,1.3229-0.3029,2.1513v7.3909h-2.7263V93.6145z"/>
		<path class="st3" d="M210.6216,88.4647c0-0.5455,0.1976-1.0153,0.5905-1.4093c0.394-0.394,0.8638-0.5905,1.4093-0.5905
			s1.0141,0.1964,1.4081,0.5905c0.394,0.394,0.5905,0.8638,0.5905,1.4093c0,0.5443-0.1964,1.0141-0.5905,1.4081
			c-0.394,0.394-0.8626,0.5905-1.4081,0.5905s-1.0153-0.1964-1.4093-0.5905C210.8192,89.4788,210.6216,89.0091,210.6216,88.4647z
			 M211.2582,93.6145h2.7263v14.3582h-2.7263V93.6145z"/>
		<path class="st3" d="M228.5842,97.4306c-0.5041-0.5242-1.0342-0.9242-1.5904-1.1963c-0.555-0.2722-1.2164-0.4094-1.9832-0.4094
			c-0.7478,0-1.3987,0.1373-1.9548,0.4094c-0.555,0.2722-1.02,0.6461-1.3927,1.1206c-0.3739,0.4745-0.6567,1.02-0.8484,1.6365
			c-0.1917,0.6153-0.2875,1.2567-0.2875,1.9229c0,0.6662,0.11,1.2981,0.3325,1.8933c0.2225,0.5964,0.5349,1.1159,0.9395,1.5608
			c0.4035,0.4437,0.8887,0.7928,1.4543,1.0449c0.5644,0.252,1.201,0.3787,1.9087,0.3787c0.7668,0,1.4235-0.1361,1.969-0.4094
			c0.5443-0.2722,1.0496-0.6709,1.5146-1.1963l1.9382,1.9383c-0.7076,0.7881-1.53,1.3537-2.4684,1.6969
			c-0.9395,0.3432-1.9347,0.5147-2.9843,0.5147c-1.1111,0-2.1252-0.181-3.0446-0.5455c-0.9194-0.3633-1.7111-0.8733-2.3773-1.5288
			c-0.6674-0.6567-1.1821-1.4436-1.5454-2.3631c-0.3633-0.9194-0.5455-1.9335-0.5455-3.0446c0-1.1099,0.1822-2.1299,0.5455-3.06
			c0.3633-0.9277,0.8733-1.7264,1.53-2.3926c0.6555-0.6662,1.4436-1.1857,2.3631-1.5596c0.9182-0.3739,1.943-0.5609,3.0742-0.5609
			c1.0496,0,2.0542,0.187,3.0139,0.5609c0.9597,0.3739,1.7927,0.9443,2.4991,1.7111L228.5842,97.4306z"/>
		<path class="st3" d="M232.9766,95.3705c0.768-0.7064,1.6554-1.2365,2.666-1.5904c1.0094-0.3526,2.0187-0.5301,3.0293-0.5301
			c1.0496,0,1.9536,0.1325,2.711,0.394c0.7573,0.2627,1.3786,0.6165,1.8637,1.0602c0.484,0.4449,0.8425,0.9549,1.0744,1.53
			c0.2319,0.5751,0.3491,1.1762,0.3491,1.8022v7.3306c0,0.5053,0.0095,0.9703,0.0296,1.3939
			c0.0201,0.4236,0.0509,0.8283,0.0911,1.2117h-2.4234c-0.0603-0.7265-0.0911-1.4543-0.0911-2.1808h-0.0603
			c-0.6059,0.9289-1.3229,1.5856-2.1501,1.969c-0.8283,0.3834-1.788,0.5751-2.8778,0.5751c-0.6674,0-1.3028-0.0911-1.9087-0.2722
			c-0.6059-0.1822-1.136-0.4544-1.5904-0.8177c-0.4544-0.3645-0.8129-0.8129-1.0756-1.349c-0.2627-0.5349-0.394-1.1549-0.394-1.8625
			c0-0.9289,0.2071-1.7063,0.6212-2.3323c0.4142-0.626,0.9798-1.136,1.6969-1.53c0.7159-0.394,1.5549-0.6768,2.5133-0.8484
			c0.9597-0.1716,1.9844-0.2568,3.0754-0.2568h1.9986v-0.6059c0-0.3645-0.071-0.7277-0.2118-1.091
			c-0.1408-0.3633-0.3538-0.691-0.6354-0.9845c-0.284-0.2923-0.6366-0.5254-1.0602-0.697
			c-0.4248-0.1716-0.9301-0.2568-1.5146-0.2568c-0.5254,0-0.9845,0.0497-1.3786,0.1515c-0.394,0.1006-0.7526,0.2272-1.0756,0.3787
			c-0.323,0.1515-0.6165,0.3278-0.878,0.5301c-0.2627,0.2012-0.5159,0.3929-0.7573,0.5751L232.9766,95.3705z M240.6716,101.0658
			c-0.6473,0-1.3087,0.0355-1.9844,0.1065c-0.6769,0.071-1.2934,0.2071-1.8483,0.4082c-0.555,0.2023-1.0094,0.4852-1.3632,0.8484
			s-0.5301,0.8283-0.5301,1.3939c0,0.8283,0.2781,1.4235,0.8331,1.7868c0.555,0.3633,1.3076,0.5455,2.2566,0.5455
			c0.7478,0,1.3833-0.1254,1.9087-0.3787c0.5254-0.252,0.949-0.5798,1.272-0.9845c0.323-0.4035,0.5562-0.8532,0.697-1.3478
			c0.1408-0.4946,0.2118-0.9845,0.2118-1.4697v-0.9088H240.6716z"/>
		<path class="st3" d="M257.7562,86.5253h2.9086v21.4474h-2.9086V86.5253z"/>
		<path class="st3" d="M265.6938,85.071h2.7263v22.9017h-2.7263V85.071z"/>
		<path class="st3" d="M272.3274,88.4647c0-0.5455,0.1964-1.0153,0.5905-1.4093c0.394-0.394,0.8626-0.5905,1.4081-0.5905
			s1.0153,0.1964,1.4093,0.5905c0.3929,0.394,0.5905,0.8638,0.5905,1.4093c0,0.5443-0.1976,1.0141-0.5905,1.4081
			c-0.394,0.394-0.8638,0.5905-1.4093,0.5905s-1.0141-0.1964-1.4081-0.5905C272.5238,89.4788,272.3274,89.0091,272.3274,88.4647z
			 M272.9628,93.6145h2.7263v14.3582h-2.7263V93.6145z"/>
		<path class="st3" d="M280.0212,93.6145h2.5441v2.2412h0.0615c0.0603-0.2012,0.2166-0.4544,0.4686-0.7573
			c0.2532-0.3029,0.5763-0.5905,0.9703-0.8638c0.3929-0.2722,0.8579-0.5041,1.3927-0.6958
			c0.5349-0.1917,1.1253-0.2887,1.7726-0.2887c1.0697,0,1.969,0.2225,2.6956,0.6674c0.7277,0.4437,1.3229,1.1099,1.788,1.9986
			c0.4639-0.8887,1.1206-1.5549,1.969-1.9986c0.8473-0.4449,1.7063-0.6674,2.5749-0.6674c1.1099,0,2.0187,0.1822,2.7263,0.5455
			c0.7064,0.3633,1.2614,0.8437,1.6661,1.4389c0.4035,0.5964,0.6816,1.2721,0.833,2.0294c0.1515,0.7573,0.2272,1.5407,0.2272,2.3477
			v8.3612h-2.7263v-7.9968c0-0.5455-0.0355-1.0709-0.1065-1.5762c-0.071-0.5041-0.2177-0.949-0.439-1.3324
			c-0.2225-0.3834-0.536-0.691-0.9395-0.9242c-0.4035-0.2319-0.9384-0.3479-1.6057-0.3479c-1.3123,0-2.2518,0.4035-2.8163,1.2117
			c-0.5656,0.8082-0.8484,1.8471-0.8484,3.1204v7.8453h-2.7263v-7.5128c0-0.6863-0.0355-1.3123-0.1065-1.8779
			c-0.071-0.5656-0.2118-1.0555-0.4236-1.4697c-0.2118-0.413-0.5147-0.736-0.9088-0.9691c-0.394-0.2319-0.9242-0.3479-1.5904-0.3479
			c-0.4852,0-0.9549,0.0958-1.4093,0.2875c-0.4544,0.1917-0.8531,0.4804-1.1963,0.8638c-0.3431,0.3834-0.6165,0.8733-0.8177,1.4685
			c-0.2023,0.5964-0.3029,1.2981-0.3029,2.1051v7.4525h-2.7263V93.6145z"/>
		<path class="st3" d="M305.4067,88.4647c0-0.5455,0.1964-1.0153,0.5905-1.4093c0.394-0.394,0.8626-0.5905,1.4081-0.5905
			s1.0153,0.1964,1.4093,0.5905c0.3929,0.394,0.5905,0.8638,0.5905,1.4093c0,0.5443-0.1976,1.0141-0.5905,1.4081
			c-0.394,0.394-0.8638,0.5905-1.4093,0.5905s-1.0141-0.1964-1.4081-0.5905C305.6031,89.4788,305.4067,89.0091,305.4067,88.4647z
			 M306.0421,93.6145h2.7263v14.3582h-2.7263V93.6145z"/>
		<path class="st3" d="M320.7944,95.9764h-3.9073v6.5129c0,0.4047,0.0095,0.8035,0.0308,1.1975
			c0.019,0.3929,0.0947,0.7467,0.2272,1.0602c0.1302,0.3124,0.3325,0.5656,0.6059,0.7573c0.2722,0.1917,0.6709,0.2875,1.1963,0.2875
			c0.323,0,0.6555-0.0308,0.9999-0.0911c0.3432-0.0603,0.6555-0.1716,0.9384-0.3337v2.4849
			c-0.323,0.181-0.7419,0.3077-1.2567,0.3787c-0.5147,0.0698-0.9147,0.1053-1.1963,0.1053c-1.0508,0-1.8637-0.1467-2.4388-0.439
			c-0.5763-0.2923-0.9999-0.6709-1.272-1.136c-0.2733-0.4639-0.4355-0.9845-0.4852-1.5596
			c-0.0509-0.5763-0.0757-1.1561-0.0757-1.7418v-7.4832h-3.15v-2.3619h3.15v-4.0292h2.7263v4.0292h3.9073V95.9764z"/>
		<path class="st3" d="M324.3692,95.3705c0.7679-0.7064,1.6554-1.2365,2.666-1.5904c1.0093-0.3526,2.0187-0.5301,3.0292-0.5301
			c1.0496,0,1.9536,0.1325,2.711,0.394c0.7573,0.2627,1.3785,0.6165,1.8637,1.0602c0.484,0.4449,0.8425,0.9549,1.0744,1.53
			s0.3491,1.1762,0.3491,1.8022v7.3306c0,0.5053,0.0095,0.9703,0.0296,1.3939c0.0201,0.4236,0.0509,0.8283,0.0911,1.2117h-2.4234
			c-0.0603-0.7265-0.0911-1.4543-0.0911-2.1808h-0.0604c-0.6058,0.9289-1.3229,1.5856-2.1501,1.969
			c-0.8283,0.3834-1.788,0.5751-2.8778,0.5751c-0.6674,0-1.3028-0.0911-1.9087-0.2722c-0.6059-0.1822-1.136-0.4544-1.5904-0.8177
			c-0.4544-0.3645-0.8129-0.8129-1.0756-1.349c-0.2627-0.5349-0.394-1.1549-0.394-1.8625c0-0.9289,0.2071-1.7063,0.6212-2.3323
			c0.4142-0.626,0.9798-1.136,1.6969-1.53c0.7159-0.394,1.5549-0.6768,2.5133-0.8484c0.9597-0.1716,1.9844-0.2568,3.0754-0.2568
			h1.9986v-0.6059c0-0.3645-0.071-0.7277-0.2118-1.091s-0.3538-0.691-0.6354-0.9845c-0.284-0.2923-0.6366-0.5254-1.0602-0.697
			c-0.4248-0.1716-0.9301-0.2568-1.5146-0.2568c-0.5254,0-0.9845,0.0497-1.3786,0.1515c-0.394,0.1006-0.7526,0.2272-1.0756,0.3787
			c-0.323,0.1515-0.6165,0.3278-0.878,0.5301c-0.2627,0.2012-0.5159,0.3929-0.7573,0.5751L324.3692,95.3705z M332.0642,101.0658
			c-0.6472,0-1.3087,0.0355-1.9844,0.1065c-0.6768,0.071-1.2933,0.2071-1.8483,0.4082c-0.555,0.2023-1.0094,0.4852-1.3632,0.8484
			c-0.3538,0.3633-0.5301,0.8283-0.5301,1.3939c0,0.8283,0.2781,1.4235,0.8331,1.7868c0.555,0.3633,1.3075,0.5455,2.2566,0.5455
			c0.7478,0,1.3833-0.1254,1.9087-0.3787c0.5254-0.252,0.949-0.5798,1.2721-0.9845c0.323-0.4035,0.5562-0.8532,0.697-1.3478
			s0.2118-0.9845,0.2118-1.4697v-0.9088H332.0642z"/>
		<path class="st3" d="M354.4204,107.9727h-2.7263v-2.0601h-0.0615c-0.5254,0.768-1.2472,1.3632-2.1654,1.788
			c-0.9194,0.4236-1.8625,0.6354-2.8329,0.6354c-1.1099,0-2.1158-0.1917-3.0139-0.5751c-0.8981-0.3834-1.6661-0.9194-2.3015-1.6057
			c-0.6366-0.6863-1.1265-1.4839-1.4697-2.3926c-0.3432-0.9088-0.5147-1.898-0.5147-2.9689c0-1.0709,0.1716-2.0649,0.5147-2.9843
			c0.3432-0.9182,0.833-1.7158,1.4697-2.3926c0.6354-0.6768,1.4034-1.207,2.3015-1.5904c0.8981-0.3834,1.9039-0.5763,3.0139-0.5763
			c1.0307,0,1.9998,0.2177,2.9086,0.652s1.6057,1.0247,2.0897,1.7714h0.0615V85.071h2.7263V107.9727z M346.9679,105.7919
			c0.7265,0,1.3833-0.1266,1.969-0.3787c0.5857-0.252,1.0804-0.5952,1.4839-1.0307c0.4047-0.4331,0.7171-0.9585,0.9395-1.575
			c0.2224-0.6153,0.3337-1.2874,0.3337-2.014c0-0.7277-0.1112-1.3987-0.3337-2.0152c-0.2225-0.6153-0.5349-1.1407-0.9395-1.575
			c-0.4035-0.4343-0.8981-0.7774-1.4839-1.0295c-0.5858-0.252-1.2425-0.3787-1.969-0.3787c-0.7266,0-1.3833,0.1266-1.969,0.3787
			c-0.5858,0.252-1.0804,0.5952-1.4839,1.0295c-0.4047,0.4343-0.7171,0.9597-0.9395,1.575
			c-0.2225,0.6165-0.3337,1.2874-0.3337,2.0152c0,0.7266,0.1112,1.3987,0.3337,2.014c0.2224,0.6165,0.5349,1.1419,0.9395,1.575
			c0.4035,0.4355,0.8981,0.7786,1.4839,1.0307C345.5846,105.6653,346.2414,105.7919,346.9679,105.7919z"/>
		<path class="st3" d="M358.5998,95.3705c0.768-0.7064,1.6555-1.2365,2.666-1.5904c1.0094-0.3526,2.0187-0.5301,3.0293-0.5301
			c1.0496,0,1.9536,0.1325,2.711,0.394c0.7573,0.2627,1.3785,0.6165,1.8637,1.0602c0.4839,0.4449,0.8425,0.9549,1.0744,1.53
			s0.3491,1.1762,0.3491,1.8022v7.3306c0,0.5053,0.0095,0.9703,0.0296,1.3939c0.0201,0.4236,0.0509,0.8283,0.0911,1.2117h-2.4234
			c-0.0603-0.7265-0.0911-1.4543-0.0911-2.1808h-0.0604c-0.6059,0.9289-1.3229,1.5856-2.1501,1.969
			c-0.8283,0.3834-1.788,0.5751-2.8778,0.5751c-0.6674,0-1.3028-0.0911-1.9087-0.2722c-0.6059-0.1822-1.136-0.4544-1.5904-0.8177
			c-0.4544-0.3645-0.8129-0.8129-1.0756-1.349c-0.2627-0.5349-0.394-1.1549-0.394-1.8625c0-0.9289,0.2071-1.7063,0.6212-2.3323
			s0.9798-1.136,1.6969-1.53c0.7159-0.394,1.5549-0.6768,2.5133-0.8484c0.9597-0.1716,1.9844-0.2568,3.0754-0.2568h1.9986v-0.6059
			c0-0.3645-0.071-0.7277-0.2118-1.091s-0.3538-0.691-0.6354-0.9845c-0.284-0.2923-0.6366-0.5254-1.0602-0.697
			c-0.4248-0.1716-0.9301-0.2568-1.5146-0.2568c-0.5254,0-0.9845,0.0497-1.3785,0.1515c-0.394,0.1006-0.7526,0.2272-1.0756,0.3787
			c-0.323,0.1515-0.6165,0.3278-0.878,0.5301c-0.2627,0.2012-0.5159,0.3929-0.7573,0.5751L358.5998,95.3705z M366.2948,101.0658
			c-0.6472,0-1.3087,0.0355-1.9844,0.1065c-0.6768,0.071-1.2933,0.2071-1.8483,0.4082c-0.555,0.2023-1.0094,0.4852-1.3632,0.8484
			c-0.3538,0.3633-0.5301,0.8283-0.5301,1.3939c0,0.8283,0.2781,1.4235,0.8331,1.7868c0.555,0.3633,1.3075,0.5455,2.2566,0.5455
			c0.7478,0,1.3833-0.1254,1.9087-0.3787c0.5254-0.252,0.949-0.5798,1.2721-0.9845c0.323-0.4035,0.5562-0.8532,0.697-1.3478
			s0.2118-0.9845,0.2118-1.4697v-0.9088H366.2948z"/>
	</g>
	<path class="st5" d="M25.388,167.844c-4.4396-4.7274-8.49-9.0405-11.9886-12.7659c10.0074-8.615,19.9188-17.1474,29.8303-25.6799
		c0.2526,0.2021,0.5053,0.4041,0.7579,0.6062C37.8828,142.4243,31.7779,154.8442,25.388,167.844"/>
	<path class="st5" d="M47.3684,170.9704c2.128-11.9923,4.0939-23.0711,6.0599-34.1502c0.3068-0.0823,0.6137-0.1647,0.9205-0.247
		c3.5445,9.9528,7.089,19.9055,10.8691,30.5199C59.3984,168.3572,53.859,169.5604,47.3684,170.9704"/>
	<path class="st5" d="M33.6537,126.1891c-4.109,2.4311-8.218,4.8623-12.6887,7.5074c-1.9647-2.0899-3.8228-4.0664-5.928-6.3057
		c1.2094-0.3873,1.8218-0.7175,2.4557-0.7656c5.2843-0.4017,10.5725-0.7515,15.8596-1.117
		C33.4528,125.7351,33.5532,125.9622,33.6537,126.1891z"/>
	<path class="st2" d="M60.6489,118.5732l60.5116,4.1425l5.9816,33.4585l-61.1063-23.4975
		c-1.0618-0.4083-1.8587-1.3227-2.1313-2.4455l-1.3275-3.4261L60.6489,118.5732L60.6489,118.5732z"/>
	<path class="st0" d="M92.0424,72.3641c1.981-19.3493-12.2965-51.0123-28.1398-62.4748c-1.2041-0.8712-2.5005-1.6513-3.8413-2.2908
		C54.5285,4.9593,49.8154,6.122,47.4299,10.554c-0.0004-0.0007-0.0006-0.0016-0.0011-0.0024
		c-0.0016,0.0041-0.0035,0.0086-0.0052,0.0126c-0.2848,0.5306-0.5272,1.1196-0.7428,1.7428
		c-4.5503,9.8916-18.227,28.5215-25.9483,32.8183c-3.4874,1.9407-7.0333,3.8253-10.7066,5.3689
		c-3.6428,1.5308-5.576,4.0634-5.9114,7.8987C3.171,69.1876,7.0401,78.1235,15.4627,84.67
		c2.0219,1.5716,5.7924,2.5966,8.3094,2.0602c4.5781,5.2401,11.0777,12.2443,13.1074,14.9943
		c6.2287,8.4393,8.2654,8.8829,17.3266,3.7352c0.8674-0.4927,1.9045-0.8484,2.5383-1.5575
		c1.4182-1.5864,4.0327-4.4107,3.6874-4.8692c-1.547-2.0548-3.814-4.5525-6.0929-4.857c-4.1632-0.5563-7.2921-2.0877-9.6555-5.348
		c-1.1898-1.6415-3.561-4.0789-6.1057-5.9509c11.9578-1.9968,26.8088-2.508,37.3112-0.6403
		c0.1843,0.1135,0.3669,0.2324,0.5523,0.3421c7.6469,4.5239,13.773,1.4592,15.2814-7.2394
		C91.893,74.3588,91.9389,73.3565,92.0424,72.3641z"/>
	<path class="st4" d="M91.1491,67.6654c-0.1035,0.9923-0.1494,1.9948-0.3194,2.9755c-1.5085,8.6984-7.6346,11.7632-15.2814,7.2394
		c-3.3755-1.997-6.5655-4.6351-9.1498-7.5862C53.8906,56.0114,46.5065,39.3428,44.5102,20.4428
		c-0.3775-3.5745,0.028-7.3492,0.7411-10.8971c1.48-7.3635,7.0733-9.9102,13.9166-6.6457c1.3408,0.6396,2.6372,1.4197,3.8413,2.2908
		C78.8525,16.6531,93.1301,48.3161,91.1491,67.6654z M81.2485,70.1948c6.7665-14.8953-15.2386-58.5881-27.0989-58.683
		C48.885,27.5593,68.5303,67.3164,81.2485,70.1948z"/>
	<path class="st4" d="M38.2786,20.5401c4.8632,9.4545,0.977,15.4919-6.0363,20.9848c-1.9565,1.5323-3.3914,5.0075-3.348,7.5623
		c0.1049,6.169,2.7111,11.764,7.4202,15.8211c1.7168,1.4791,4.8472,2.4272,7.0512,2.0352c8.7776-1.5614,16.2763-0.8681,19.938,8.916
		c-13.9551-4.8689-26.6788,0.6279-39.6188,5.946c-2.4415,1.0034-6.8671-0.0864-9.1152-1.834
		C6.1468,73.4249,2.2777,64.489,3.2215,53.6943c0.3353-3.8353,2.2686-6.368,5.9114-7.8987
		c3.6733-1.5436,7.2192-3.4282,10.7066-5.3689C28.0451,35.8603,34.7233,29.7903,38.2786,20.5401z"/>
	<path class="st4" d="M27.239,85.2273c2.9435-1.2925,5.2398-2.2084,7.4532-3.2934c3.6824-1.8053,6.6475-1.1855,9.0982,2.1954
		c2.3634,3.2605,5.4923,4.7919,9.6555,5.348c2.2789,0.3045,4.5459,2.8022,6.0929,4.857c0.3453,0.4586-2.2693,3.2828-3.6874,4.8692
		c-0.634,0.7092-1.671,1.0649-2.5383,1.5575c-9.0612,5.1478-11.0978,4.7042-17.3266-3.7352
		C33.2272,93.2873,30.4522,89.5602,27.239,85.2273z"/>
	<path class="st4" d="M67.3691,50.7964c-2.6457-5.9073-4.9138-10.9716-7.3913-16.5036c5.0196-0.808,7.9167,1.1775,9.7196,4.5257
		C71.7697,42.6669,71.1586,46.4495,67.3691,50.7964z"/>
</g>
</svg>
