<?xml version="1.0" encoding="utf-8"?>
<!-- Generator: Adobe Illustrator 25.2.3, SVG Export Plug-In . SVG Version: 6.00 Build 0)  -->
<svg version="1.1" id="Layer_1" xmlns="http://www.w3.org/2000/svg" xmlns:xlink="http://www.w3.org/1999/xlink" x="0px" y="0px"
	 viewBox="0 0 20 20" style="enable-background:new 0 0 20 20;" xml:space="preserve">
<style type="text/css">
	.st0{clip-path:url(#SVGID_2_);}
</style>
<g>
	<g>
		<g>
			<defs>
				<path id="SVGID_1_" d="M10.4762,0.9029l2.5249,5.9085l6.4003,0.5725c0.2863,0.022,0.4918,0.2716,0.4697,0.5578
					c-0.0147,0.1395-0.0734,0.2569-0.1762,0.345l0,0l-4.8442,4.2277l1.4313,6.2682c0.0661,0.2789-0.1101,0.5505-0.389,0.6165
					c-0.1395,0.0294-0.2863,0-0.3963-0.0734l-5.5048-3.2882l-5.5195,3.3029c-0.2422,0.1468-0.5578,0.0661-0.7046-0.1762
					c-0.0734-0.1174-0.0881-0.2569-0.0587-0.3817l0,0l1.4313-6.2682L0.2959,8.2867C0.0831,8.1032,0.061,7.7729,0.2445,7.56
					C0.3473,7.45,0.4794,7.3986,0.6115,7.3912l6.3856-0.5725L9.522,0.9029c0.1101-0.2642,0.411-0.3817,0.6753-0.2716
					C10.3294,0.6827,10.4248,0.7854,10.4762,0.9029L10.4762,0.9029L10.4762,0.9029z"/>
			</defs>
			<use xlink:href="#SVGID_1_"  style="overflow:visible;fill:#FFD401;"/>
			<clipPath id="SVGID_2_">
				<use xlink:href="#SVGID_1_"  style="overflow:visible;"/>
			</clipPath>
			<g class="st0">
				<g>
					<defs>
						<rect id="SVGID_3_" x="0.0684" y="0.5139" width="19.8247" height="18.9733"/>
					</defs>
					<use xlink:href="#SVGID_3_"  style="overflow:visible;fill:#FFD401;"/>
					<clipPath id="SVGID_4_">
						<use xlink:href="#SVGID_3_"  style="overflow:visible;"/>
					</clipPath>
				</g>
			</g>
		</g>
	</g>
</g>
</svg>
