<?xml version="1.0" encoding="utf-8"?>
<!-- Generator: Adobe Illustrator 24.0.2, SVG Export Plug-In . SVG Version: 6.00 Build 0)  -->
<svg version="1.1" id="Capa_1" xmlns="http://www.w3.org/2000/svg" xmlns:xlink="http://www.w3.org/1999/xlink" x="0px" y="0px"
	 width="200.4887px" height="32.4851px" viewBox="0 0 200.4887 32.4851" style="enable-background:new 0 0 200.4887 32.4851;"
	 xml:space="preserve">
<style type="text/css">
	.st0{fill:#FF5F00;}
	.st1{fill:#EB001B;}
	.st2{fill:#F79E1B;}
	.st3{fill:url(#SVGID_1_);}
	.st4{fill:url(#SVGID_2_);}
	.st5{fill:url(#SVGID_3_);}
	.st6{fill:url(#SVGID_4_);}
	.st7{fill:#306FC5;}
	.st8{fill:#FFFFFF;}
</style>
<g>
	<g id="layer1_1_" transform="matrix(3.3557321,0,0,3.3557321,-1551.7864,-1849.1059)">
		<g id="g13_1_" transform="matrix(2.5579399,0,0,2.5579399,884.90115,-11.427398)">
			<g id="g15_1_" transform="translate(-502.86126,-41.013507)">
				<path id="XMLID_3_" d="M348.8839,264.6762v-0.2485c0-0.0952-0.058-0.1574-0.1574-0.1574c-0.0497,0-0.1036,0.0166-0.1408,0.0704
					c-0.029-0.0456-0.0704-0.0704-0.1325-0.0704c-0.0414,0-0.0829,0.0124-0.116,0.058v-0.0497h-0.087v0.3976h0.087v-0.2195
					c0-0.0704,0.0373-0.1035,0.0953-0.1035s0.087,0.0373,0.087,0.1035v0.2195h0.087v-0.2195c0-0.0704,0.0414-0.1035,0.0952-0.1035
					c0.058,0,0.087,0.0373,0.087,0.1035v0.2195H348.8839z M350.1721,264.2786h-0.1408v-0.1201h-0.087v0.1201h-0.0787v0.0787h0.0787
					v0.1823c0,0.0911,0.0373,0.145,0.1367,0.145c0.0373,0,0.0787-0.0124,0.1077-0.029l-0.0249-0.0746
					c-0.0248,0.0166-0.0538,0.0207-0.0746,0.0207c-0.0414,0-0.058-0.0249-0.058-0.0663v-0.1781h0.1408V264.2786z M350.9093,264.2703
					c-0.0497,0-0.0828,0.0248-0.1035,0.058v-0.0497h-0.087v0.3976h0.087v-0.2237c0-0.0663,0.029-0.1036,0.0829-0.1036
					c0.0166,0,0.0373,0.0042,0.0538,0.0083l0.0249-0.0829C350.9508,264.2703,350.9259,264.2703,350.9093,264.2703L350.9093,264.2703
					z M349.7951,264.3117c-0.0414-0.029-0.0994-0.0414-0.1615-0.0414c-0.0994,0-0.1657,0.0497-0.1657,0.1284
					c0,0.0663,0.0497,0.1035,0.1367,0.116l0.0414,0.0041c0.0456,0.0083,0.0704,0.0207,0.0704,0.0414
					c0,0.029-0.0331,0.0497-0.0911,0.0497c-0.058,0-0.1036-0.0207-0.1326-0.0414l-0.0414,0.0663
					c0.0456,0.0331,0.1077,0.0497,0.1698,0.0497c0.116,0,0.1823-0.0538,0.1823-0.1284c0-0.0704-0.0539-0.1077-0.1367-0.1201
					l-0.0414-0.0042c-0.0373-0.0042-0.0663-0.0124-0.0663-0.0373c0-0.029,0.029-0.0456,0.0746-0.0456
					c0.0497,0,0.0994,0.0207,0.1243,0.0331L349.7951,264.3117L349.7951,264.3117z M352.1064,264.2703
					c-0.0497,0-0.0829,0.0248-0.1035,0.058v-0.0497h-0.087v0.3976h0.087v-0.2237c0-0.0663,0.029-0.1036,0.0828-0.1036
					c0.0166,0,0.0373,0.0042,0.0539,0.0083l0.0248-0.0829C352.1478,264.2703,352.123,264.2703,352.1064,264.2703L352.1064,264.2703z
					 M350.9963,264.4774c0,0.1201,0.0828,0.2071,0.2112,0.2071c0.058,0,0.0994-0.0124,0.1408-0.0456l-0.0414-0.0704
					c-0.0331,0.0248-0.0663,0.0373-0.1035,0.0373c-0.0704,0-0.1201-0.0497-0.1201-0.1284c0-0.0746,0.0497-0.1243,0.1201-0.1284
					c0.0373,0,0.0704,0.0125,0.1035,0.0373l0.0414-0.0704c-0.0414-0.0331-0.0829-0.0456-0.1408-0.0456
					C351.0792,264.2703,350.9963,264.3573,350.9963,264.4774L350.9963,264.4774L350.9963,264.4774z M351.7999,264.4774v-0.1988
					h-0.087v0.0497c-0.029-0.0373-0.0704-0.058-0.1243-0.058c-0.1118,0-0.1988,0.087-0.1988,0.2071s0.087,0.2071,0.1988,0.2071
					c0.058,0,0.0994-0.0207,0.1243-0.058v0.0497h0.087V264.4774L351.7999,264.4774z M351.481,264.4774
					c0-0.0704,0.0456-0.1284,0.1201-0.1284c0.0704,0,0.1201,0.0539,0.1201,0.1284c0,0.0704-0.0497,0.1284-0.1201,0.1284
					C351.5265,264.6017,351.481,264.5478,351.481,264.4774L351.481,264.4774z M350.4413,264.2703
					c-0.116,0-0.1988,0.0828-0.1988,0.2071s0.0829,0.2071,0.203,0.2071c0.058,0,0.116-0.0166,0.1615-0.0538l-0.0414-0.0621
					c-0.0331,0.0248-0.0746,0.0414-0.116,0.0414c-0.0539,0-0.1077-0.0248-0.1201-0.0952h0.2941c0-0.0125,0-0.0207,0-0.0331
					C350.6277,264.3531,350.5531,264.2703,350.4413,264.2703L350.4413,264.2703L350.4413,264.2703z M350.4413,264.3448
					c0.0539,0,0.0911,0.0331,0.0994,0.0952h-0.2071C350.3419,264.3863,350.3792,264.3448,350.4413,264.3448L350.4413,264.3448z
					 M352.5993,264.4774v-0.3562h-0.087v0.2071c-0.029-0.0373-0.0704-0.058-0.1243-0.058c-0.1118,0-0.1988,0.087-0.1988,0.2071
					s0.087,0.2071,0.1988,0.2071c0.058,0,0.0994-0.0207,0.1243-0.058v0.0497h0.087V264.4774L352.5993,264.4774z M352.2804,264.4774
					c0-0.0704,0.0456-0.1284,0.1201-0.1284c0.0704,0,0.1201,0.0539,0.1201,0.1284c0,0.0704-0.0497,0.1284-0.1201,0.1284
					C352.3259,264.6017,352.2804,264.5478,352.2804,264.4774L352.2804,264.4774z M349.3726,264.4774v-0.1988h-0.087v0.0497
					c-0.029-0.0373-0.0704-0.058-0.1243-0.058c-0.1118,0-0.1988,0.087-0.1988,0.2071s0.087,0.2071,0.1988,0.2071
					c0.058,0,0.0994-0.0207,0.1243-0.058v0.0497h0.087V264.4774L349.3726,264.4774z M349.0495,264.4774
					c0-0.0704,0.0456-0.1284,0.1201-0.1284c0.0704,0,0.1201,0.0539,0.1201,0.1284c0,0.0704-0.0497,0.1284-0.1201,0.1284
					C349.0951,264.6017,349.0495,264.5478,349.0495,264.4774z"/>
			</g>
			<g id="XMLID_1_" transform="translate(-502.86126,-41.013507)">
				<rect id="rect19_1_" x="349.7661" y="261.259" class="st0" width="1.3048" height="2.3444"/>
				<path id="XMLID_2_" class="st1" d="M349.849,262.4312c0-0.4763,0.2237-0.8988,0.5675-1.1722
					c-0.2527-0.1988-0.5716-0.3189-0.9196-0.3189c-0.8243,0-1.4911,0.6669-1.4911,1.4911s0.6669,1.4911,1.4911,1.4911
					c0.3479,0,0.6669-0.1201,0.9196-0.3189C350.0726,263.3342,349.849,262.9075,349.849,262.4312z"/>
				<path id="path22_1_" class="st2" d="M352.8313,262.4312c0,0.8243-0.6669,1.4911-1.4911,1.4911
					c-0.3479,0-0.6669-0.1201-0.9196-0.3189c0.348-0.2734,0.5675-0.6959,0.5675-1.1722s-0.2237-0.8988-0.5675-1.1722
					c0.2527-0.1988,0.5716-0.3189,0.9196-0.3189C352.1644,260.94,352.8313,261.6111,352.8313,262.4312z"/>
			</g>
		</g>
	</g>
	<g>
		<linearGradient id="SVGID_1_" gradientUnits="userSpaceOnUse" x1="26.5367" y1="23.3876" x2="26.5367" y2="5.8266">
			<stop  offset="0" style="stop-color:#051244"/>
			<stop  offset="1" style="stop-color:#293688"/>
		</linearGradient>
		<polygon class="st3" points="26.5367,5.8266 25.6587,5.8266 22.5367,23.3876 27.5123,23.3876 30.5367,5.8266 		"/>
		<linearGradient id="SVGID_2_" gradientUnits="userSpaceOnUse" x1="37.7075" y1="23.7779" x2="37.7075" y2="5.2412">
			<stop  offset="0" style="stop-color:#051244"/>
			<stop  offset="1" style="stop-color:#293688"/>
		</linearGradient>
		<path class="st4" d="M40.1953,12.7534c-1.7561-0.8781-2.8293-1.3659-2.8293-2.2439c0-0.7805,0.8781-1.561,2.8293-1.561
			c1.6585,0,2.8293,0.2927,3.7073,0.6829l0.4878,0.1951l0.7805-3.8049c-0.9756-0.3902-2.5366-0.7805-4.4878-0.7805
			c-4.8781,0-8.3903,2.439-8.3903,5.9512c0,2.6342,2.439,4,4.3903,4.8781c1.9512,0.8781,2.5366,1.4634,2.5366,2.2439
			c0,1.1707-1.561,1.7561-2.9268,1.7561c-1.9512,0-3.0244-0.2927-4.6829-0.9756l-0.6829-0.2927l-0.6829,4
			c1.1707,0.4878,3.3171,0.9756,5.561,0.9756c5.1707,0,8.5854-2.439,8.5854-6.1464C44.3904,15.5827,43.1221,14.0217,40.1953,12.7534
			z"/>
		<linearGradient id="SVGID_3_" gradientUnits="userSpaceOnUse" x1="52.5856" y1="23.3876" x2="52.5856" y2="5.8266">
			<stop  offset="0" style="stop-color:#051244"/>
			<stop  offset="1" style="stop-color:#293688"/>
		</linearGradient>
		<path class="st5" d="M57.3661,5.8266h-2.6342h-1.1707c-1.1707,0-2.0488,0.0976-2.5366,1.2683l-7.317,16.2926l-0.0001,0.0001h0
			h5.2683l0.9756-2.9268h6.2439l0.5854,2.9268h4.6829L57.3661,5.8266z M51.3173,17.6315v-0.0976
			c0.3903-0.9756,1.9512-5.1708,1.9512-5.1708s0.3902-1.0732,0.6829-1.7561l0.2927,1.6585c0,0,0.9756,4.3903,1.1707,5.3659H51.3173z
			"/>
		<linearGradient id="SVGID_4_" gradientUnits="userSpaceOnUse" x1="11.9025" y1="23.4852" x2="11.9025" y2="5.8266">
			<stop  offset="0" style="stop-color:#051244"/>
			<stop  offset="1" style="stop-color:#293688"/>
		</linearGradient>
		<path class="st6" d="M19.5123,5.9241h-0.9756L13.561,18.1193l-0.4878-2.5366c0,0,0,0,0,0c0,0,0,0,0,0l-0.0434-0.2048
			c0.014,0.0358,0.0298,0.0714,0.0434,0.1073l-0.1788-0.7466L11.3171,7.29c-0.2927-1.1707-1.1707-1.4634-2.2439-1.4634H0
			l3.1134,0.9556c1.1508,0.4397,2.2433,0.9588,3.2577,1.5452l4.2631,15.1578h5.2683L23.805,5.9241H19.5123z"/>
	</g>
	<rect x="159.5129" y="0" class="st7" width="40.9758" height="31.5632"/>
	<g>
		<polygon class="st8" points="164.695,11.8422 166.0011,11.8422 165.3483,10.1799 		"/>
		<polygon class="st8" points="171.6411,17.4225 171.6411,18.1944 173.8378,18.1944 173.8378,19.0257 171.6411,19.0257 
			171.6411,19.9165 174.0751,19.9165 175.2031,18.6694 174.1346,17.4225 		"/>
		<polygon class="st8" points="188.7981,10.1799 188.0856,11.8422 189.4512,11.8422 		"/>
		<polygon class="st8" points="177.9934,20.3909 177.9934,17.007 176.4498,18.6694 		"/>
		<path class="st8" d="M180.9025,17.957c-0.0594-0.3562-0.2971-0.5346-0.6535-0.5346h-1.2464v1.0686h1.3062
			C180.6648,18.4912,180.9025,18.3131,180.9025,17.957z"/>
		<path class="st8" d="M185.0578,18.3726c0.1188-0.0595,0.1784-0.2378,0.1784-0.4155c0.0594-0.2373-0.0596-0.3562-0.1784-0.4156
			c-0.1184-0.0594-0.2968-0.0594-0.4746-0.0594h-1.1876v0.95h1.1875C184.761,18.4321,184.9393,18.4321,185.0578,18.3726z"/>
		<path class="st8" d="M193.6065,8.6362v0.7124l-0.3559-0.7124h-2.79v0.7124l-0.3564-0.7124h-3.7995
			c-0.653,0-1.1875,0.1188-1.6622,0.3563V8.6362h-2.6714v0.0594v0.2969c-0.2968-0.2374-0.653-0.3563-1.1279-0.3563h-9.5581
			l-0.6533,1.4842l-0.6529-1.4842h-2.1371h-0.8906v0.7124l-0.2969-0.7124h-0.0594h-2.5527l-1.1875,2.7902l-1.3653,3.0277
			l-0.0251,0.0595h0.0251h3.0278h0.0379l0.0215-0.0595l0.3564-0.8903h0.7717l0.3562,0.9498h3.443v-0.0595v-0.6529l0.297,0.7123
			h1.7215l0.2967-0.7123v0.6529v0.0595h1.3654h6.8273h0.0594V12.97h0.119c0.1186,0,0.1186,0,0.1186,0.1782v1.306h4.2745V14.098
			c0.3562,0.1784,0.8902,0.3562,1.6026,0.3562h1.7813l0.3562-0.9497h0.8309l0.3562,0.9497h3.4431v-0.5936v-0.2968l0.5345,0.8903
			h0.1184h0.0596h2.6122v-5.818h-2.6716l0,0H193.6065z M173.4814,13.6233h-0.5938h-0.3561v-0.3559V10.358l-0.0594,0.1362v-0.0016
			l-1.3811,3.1307h-0.0437h-0.3175h-0.5137l-1.4247-3.2653v3.2653h-2.0183l-0.4155-0.8905h-2.0187l-0.4156,0.8905h-1.0436
			l1.7562-4.1558h1.4841l1.6622,3.9775V9.4675h0.3561h1.2167l0.028,0.0595h0.0021l0.749,1.6302l0.5379,1.2214l0.019-0.0616
			l1.1873-2.8495h1.6031L173.4814,13.6233L173.4814,13.6233L173.4814,13.6233z M177.5779,10.358h-2.3154v0.7717h2.256v0.8311h-2.256
			v0.8314h2.3154v0.8902h-3.3246V9.4676h3.3246V10.358L177.5779,10.358z M181.8122,11.8888
			c0.0015,0.0014,0.0035,0.0023,0.0054,0.0036c0.0225,0.0237,0.0417,0.0476,0.0581,0.0704
			c0.1137,0.1491,0.2057,0.3708,0.2103,0.6959c0.0003,0.0056,0.0006,0.0112,0.0009,0.0168c0,0.0032,0.0006,0.0061,0.0006,0.0094
			c0,0.0019-0.0002,0.0033-0.0002,0.0051c0.0014,0.0327,0.0022,0.0661,0.0022,0.1022v0.8312h-0.8903v-0.4751
			c0-0.2374,0-0.5937-0.1784-0.8312c-0.0561-0.0561-0.1129-0.0931-0.1747-0.1194c-0.089-0.0576-0.2576-0.0586-0.5375-0.0586h-1.0689
			v1.4842h-1.009V9.4676h2.2561c0.534,0,0.8903,0,1.1873,0.1781c0.2909,0.1747,0.4666,0.4644,0.4733,0.9231
			c-0.0137,0.6318-0.4193,0.9784-0.7109,1.0953C181.4366,11.6641,181.6347,11.704,181.8122,11.8888z M183.8114,13.6233h-1.0094
			V9.4675h1.0094V13.6233z M195.388,13.6233h-1.3063l-1.8997-3.1466v2.6122l-0.0062-0.0061v0.5432h-1.0029v-0.0025h-1.0094
			l-0.3562-0.8905h-2.078l-0.3562,0.9497h-1.1279c-0.4746,0-1.0687-0.1186-1.4247-0.4748
			c-0.3562-0.3562-0.5341-0.8312-0.5341-1.6028c0-0.5936,0.1186-1.1877,0.5341-1.6625c0.2966-0.3565,0.8312-0.4749,1.4841-0.4749
			h0.9501v0.8904h-0.9501c-0.3562,0-0.534,0.0592-0.7719,0.2376c-0.1777,0.178-0.2966,0.5341-0.2966,0.9497
			c0,0.475,0.0594,0.7718,0.2966,1.0093c0.1785,0.1784,0.4158,0.2378,0.7126,0.2378h0.4155l1.3653-3.2651h0.594h0.8903
			l1.6625,3.9775v-0.2029V11.961v-0.1186V9.5273h1.4841l1.7213,2.9088V9.5273h1.0097v4.0962h0.0002V13.6233L195.388,13.6233z"/>
		<path class="st8" d="M180.9657,11.1984c0.0173-0.0185,0.033-0.0395,0.0464-0.0636c0.0538-0.0851,0.1154-0.2385,0.0822-0.4477
			c-0.0014-0.0192-0.0049-0.037-0.009-0.0541c-0.0011-0.0048-0.0009-0.009-0.0022-0.0137l-0.0006,0.0001
			c-0.0295-0.1017-0.1049-0.1642-0.1801-0.2021c-0.119-0.0592-0.2971-0.0592-0.4751-0.0592h-1.1875v0.95h1.1875
			c0.178,0,0.3562,0,0.4751-0.0595c0.0179-0.0091,0.0337-0.0213,0.049-0.0353l0.0002,0.0008
			C180.9516,11.2139,180.9577,11.2076,180.9657,11.1984z"/>
		<path class="st8" d="M198.8904,19.5601c0-0.4155-0.1186-0.8312-0.2966-1.128v-2.6714h-0.0027v-0.1784c0,0-2.4884,0-2.8587,0
			c-0.3702,0-0.8195,0.3561-0.8195,0.3561v-0.3561h-2.7308c-0.4158,0-0.9497,0.1188-1.1875,0.3561v-0.3561h-4.8679v0.1784v0.1777
			c-0.3559-0.2966-1.0095-0.3561-1.3061-0.3561h-3.2059v0.1784v0.1777c-0.2968-0.2966-1.0095-0.3561-1.3659-0.3561h-3.5615
			l-0.8313,0.8906l-0.7718-0.8906h-0.2485h-0.4044h-4.6898v0.1784v0.469v5.3491h5.2243l0.8584-0.8587l0.7441,0.8587h0.0596h3.0103
			h0.1364h0.0594h0.0591v-0.5936v-0.7717h0.297c0.4152,0,0.9498,0,1.3653-0.1784v1.4841v0.119h2.6716v-0.119v-1.4246h0.1184
			c0.1784,0,0.1784,0,0.1784,0.1781v1.2465v0.119h8.0737c0.5347,0,1.0687-0.119,1.3655-0.3565v0.2374v0.119h2.553
			c0.534,0,1.0687-0.0593,1.4249-0.2969c0.5466-0.3279,0.8911-0.9084,0.9423-1.6008c0.0024-0.0205,0.0054-0.041,0.0073-0.0616
			l-0.0035-0.0033C198.8889,19.6369,198.8904,19.5989,198.8904,19.5601z M180.19,19.204h-1.1876v0.1777v0.3564v0.3563v0.6531
			h-1.9513l-1.1357-1.3062l-0.0039,0.0044l-0.0555-0.0639l-1.306,1.3657h-3.7994v-4.1556h3.8589l1.0542,1.1547l0.2216,0.2418
			l0.0301-0.0312l1.2469-1.3653h3.1464c0.6106,0,1.2944,0.1507,1.5535,0.772c0.0312,0.123,0.0493,0.2598,0.0493,0.4152
			C181.9114,18.9663,181.0802,19.204,180.19,19.204z M186.1267,19.1445c0.1186,0.1777,0.178,0.4155,0.178,0.7719v0.8309h-1.0091
			v-0.5341c0-0.2379,0-0.6531-0.1783-0.8315c-0.1184-0.1777-0.3562-0.1777-0.7121-0.1777h-1.0685v1.5434h-1.0092v-4.2151h2.2558
			c0.4746,0,0.8902,0,1.1875,0.1779c0.2966,0.1783,0.534,0.4751,0.534,0.9501c0,0.6529-0.4154,1.0091-0.7123,1.128
			C185.8893,18.9066,186.0673,19.0257,186.1267,19.1445z M190.2231,17.4225h-2.3156v0.7718h2.256v0.8313h-2.256v0.8312h2.3156
			v0.8904h-3.3246v-4.2151h3.3246V17.4225z M192.7164,20.7474h-1.8999V19.857h1.8999c0.1777,0,0.2968,0,0.4158-0.1188
			c0.0594-0.0595,0.1184-0.178,0.1184-0.2969c0-0.119-0.059-0.2372-0.1184-0.2967c-0.0596-0.0593-0.1785-0.1188-0.3565-0.1188
			c-0.9499-0.0594-2.0779,0-2.0779-1.306c0-0.5937,0.3562-1.2469,1.4249-1.2469h1.959v1.0091h-1.8403
			c-0.178,0-0.2969,0-0.4158,0.0594c-0.1184,0.0595-0.1184,0.1784-0.1184,0.2969c0,0.1782,0.1184,0.2376,0.2372,0.2965
			c0.119,0.0595,0.2376,0.0595,0.3562,0.0595h0.5344c0.5344,0,0.8905,0.1188,1.1279,0.3563c0.1782,0.1782,0.297,0.475,0.297,0.8905
			C194.2598,20.3315,193.7255,20.7474,192.7164,20.7474z M197.8219,20.3315c-0.2372,0.2378-0.653,0.4159-1.2469,0.4159h-1.8993
			V19.857h1.8992c0.1782,0,0.2972,0,0.4158-0.1188c0.0592-0.0595,0.1188-0.178,0.1188-0.2969c0-0.119-0.0596-0.2372-0.1188-0.2967
			c-0.0594-0.0593-0.178-0.1188-0.3562-0.1188c-0.9496-0.0594-2.0779,0-2.0779-1.3059c0-0.5643,0.3228-1.074,1.119-1.2254
			c0.0952-0.0131,0.1958-0.0216,0.3059-0.0216h1.9593v1.0091h-1.3063h-0.4748h-0.0594c-0.1782,0-0.2968,0-0.4154,0.0594
			c-0.0598,0.0595-0.1192,0.1784-0.1192,0.2969c0,0.1782,0.0594,0.2376,0.2378,0.2965c0.1186,0.0595,0.2374,0.0595,0.3562,0.0595
			h0.059h0.4751c0.2595,0,0.4557,0.032,0.6352,0.0951c0.1644,0.0595,0.7088,0.303,0.8306,0.9387
			c0.0106,0.0666,0.0184,0.1361,0.0184,0.213C198.178,19.7975,198.0593,20.0943,197.8219,20.3315z"/>
	</g>
</g>
</svg>
